{
  "code": 0,
  "data": {
    "songers": [
      {
        "singerid": "143",
        "singermid": "003Nz2So3XXYek",
        "singername": "陈奕迅"
      },
      {
        "singerid": "4558",
        "singermid": "0025NhlN2yWrP4",
        "singername": "周杰伦"
      }
    ],
    "albums": [
      {
        "albummid": "000GDz8k03UOaI",
        "albumname": "黑白灰",
        "singerid": "143",
        "singermid": "003Nz2So3XXYek",
        "singername": "陈奕迅"
      },
      {
        "albummid": "002Neh8l0uciQZ",
        "albumname": "摩羯座",
        "singerid": "4558",
        "singermid": "0025NhlN2yWrP4",
        "singername": "周杰伦"
      }
    ],
    "dissts": [
      {
        "author": "RainJoy",
        "dissid": "1",
        "dissname": "陌上花开，可缓缓归矣",
        "xyq": "https://cmspic-10003009.image.myqcloud.com/01ac0950-4a24-11e8-973b-efddd314ad1d_size_1954x1474",
        "imgurl": "https://cmspic-10004025.image.myqcloud.com/e705b620-8d88-11e8-8689-37e52a1b8f87_size_912x640",
        "type": "RainJoy"
      }
    ]
  }
}
